test/_sim_out/test.vcd
$comment Generated by nMigen $end
$date 2020-05-06 00:54:15.603134 $end
$timescale 100 ps $end
$scope module top $end
$scope module U$0 $end
$var wire 16 0 SUM_out_r0_c0 $end
$var wire 16 1 SUM_out_r0_c1 $end
$var wire 16 2 SUM_out_r0_c2 $end
$var wire 16 3 SUM_out_r0_c3 $end
$var wire 16 4 SUM_out_r1_c0 $end
$var wire 16 5 SUM_out_r1_c1 $end
$var wire 16 6 SUM_out_r1_c2 $end
$var wire 16 7 SUM_out_r1_c3 $end
$var wire 16 8 SUM_out_r2_c0 $end
$var wire 16 9 SUM_out_r2_c1 $end
$var wire 16 a SUM_out_r2_c2 $end
$var wire 16 b SUM_out_r2_c3 $end
$var wire 16 c SUM_out_r3_c0 $end
$var wire 16 d SUM_out_r3_c1 $end
$var wire 16 e SUM_out_r3_c2 $end
$var wire 16 f SUM_out_r3_c3 $end
$var wire 16 11 L_in $end
$var wire 16 13 L_in$1 $end
$var wire 16 14 L_in$2 $end
$var wire 16 16 Top_in $end
$var wire 16 18 L_in$3 $end
$var wire 16 1a Top_in$1 $end
$var wire 16 1c L_in$4 $end
$var wire 16 1e Top_in$2 $end
$var wire 16 21 L_in$5 $end
$var wire 16 23 Top_in$3 $end
$var wire 16 24 Top_in$4 $end
$var wire 16 27 L_in$6 $end
$var wire 16 29 Top_in$5 $end
$var wire 16 2b L_in$7 $end
$var wire 16 2c Top_in$6 $end
$var wire 16 2f L_in$8 $end
$var wire 16 31 Top_in$7 $end
$var wire 16 33 Top_in$8 $end
$var wire 16 34 L_in$9 $end
$var wire 16 36 Top_in$9 $end
$var wire 16 39 L_in$10 $end
$var wire 16 3a Top_in$10 $end
$var wire 16 3d L_in$11 $end
$var wire 16 3e Top_in$11 $end
$var wire 16 40 In $end
$var wire 16 42 L_in$12 $end
$var wire 16 45 In$1 $end
$var wire 16 47 L_in$13 $end
$var wire 16 48 In$2 $end
$var wire 16 4a L_in$14 $end
$var wire 16 4d In$3 $end
$var wire 16 4f L_in$15 $end
$var wire 16 51 In$4 $end
$var wire 16 52 Top_in$12 $end
$var wire 16 55 In$5 $end
$var wire 16 57 Top_in$13 $end
$var wire 16 59 In$6 $end
$var wire 16 5a Top_in$14 $end
$var wire 16 5d In$7 $end
$var wire 16 5f Top_in$15 $end
$var wire 16 60 SUM $end
$var wire 16 62 SUM$1 $end
$var wire 16 64 SUM$2 $end
$var wire 16 66 SUM$3 $end
$var wire 16 68 SUM$4 $end
$var wire 16 6a SUM$5 $end
$var wire 16 6c SUM$6 $end
$var wire 16 6f SUM$7 $end
$var wire 16 70 SUM$8 $end
$var wire 16 73 SUM$9 $end
$var wire 16 74 SUM$10 $end
$var wire 16 77 SUM$11 $end
$var wire 16 79 SUM$12 $end
$var wire 16 7a SUM$13 $end
$var wire 16 7c SUM$14 $end
$var wire 16 7e SUM$15 $end
$var wire 16 80 F_right $end
$var wire 16 82 F_right$1 $end
$var wire 16 84 F_right$2 $end
$var wire 16 86 F_down $end
$var wire 16 89 F_right$3 $end
$var wire 16 8a F_down$1 $end
$var wire 16 8c F_right$4 $end
$var wire 16 8e F_down$2 $end
$var wire 16 90 F_right$5 $end
$var wire 16 92 F_down$3 $end
$var wire 16 94 F_down$4 $end
$var wire 16 96 F_right$6 $end
$var wire 16 98 F_down$5 $end
$var wire 16 9a F_right$7 $end
$var wire 16 9c F_down$6 $end
$var wire 16 9f F_right$8 $end
$var wire 16 a0 F_down$7 $end
$var wire 16 a2 F_down$8 $end
$var wire 16 a4 F_right$9 $end
$var wire 16 a6 F_down$9 $end
$var wire 16 a8 F_right$10 $end
$var wire 16 aa F_down$10 $end
$var wire 16 ad F_right$11 $end
$var wire 16 ae F_down$11 $end
$var wire 16 b0 L_in_row_0 $end
$var wire 16 b1 Out $end
$var wire 16 b3 L_in_row_1 $end
$var wire 16 b4 Out$1 $end
$var wire 16 b6 L_in_row_2 $end
$var wire 16 b7 Out$2 $end
$var wire 16 b9 L_in_row_3 $end
$var wire 16 bb Out$3 $end
$var wire 16 bc Top_in_col_0 $end
$var wire 16 be Out$4 $end
$var wire 16 bf Top_in_col_1 $end
$var wire 16 c0 Out$5 $end
$var wire 16 c2 Top_in_col_2 $end
$var wire 16 c3 Out$6 $end
$var wire 16 c5 Top_in_col_3 $end
$var wire 16 c6 Out$7 $end
$scope module FIFO_left_row_0 $end
$var wire 16 41 In $end
$var wire 16 b2 Out $end
$upscope $end
$scope module FIFO_left_row_1 $end
$var wire 16 44 In $end
$var wire 16 b5 Out $end
$var wire 16 108 input $end
$var wire 16 10a output $end
$scope module buffer $end
$var wire 1 c9 clk $end
$var wire 1 e9 rst $end
$var wire 16 109 input $end
$var wire 16 10b output $end
$upscope $end
$upscope $end
$scope module FIFO_left_row_2 $end
$var wire 16 49 In $end
$var wire 16 b8 Out $end
$var wire 16 10c input $end
$var wire 16 10f input$1 $end
$var wire 16 110 output $end
$var wire 16 112 output$1 $end
$scope module buffer_0 $end
$var wire 1 d6 clk $end
$var wire 1 fc rst $end
$var wire 16 10e input $end
$var wire 16 111 output $end
$upscope $end
$scope module buffer_1 $end
$var wire 1 e3 clk $end
$var wire 1 f6 rst $end
$var wire 16 10d input $end
$var wire 16 113 output $end
$upscope $end
$upscope $end
$scope module FIFO_left_row_3 $end
$var wire 16 4c In $end
$var wire 16 ba Out $end
$var wire 16 114 input $end
$var wire 16 117 input$1 $end
$var wire 16 118 input$2 $end
$var wire 16 11b output $end
$var wire 16 11c output$1 $end
$var wire 16 11f output$2 $end
$scope module buffer_0 $end
$var wire 1 dc clk $end
$var wire 1 ef rst $end
$var wire 16 119 input $end
$var wire 16 11a output $end
$upscope $end
$scope module buffer_1 $end
$var wire 1 da clk $end
$var wire 1 ff rst $end
$var wire 16 115 input $end
$var wire 16 11d output $end
$upscope $end
$scope module buffer_2 $end
$var wire 1 d2 clk $end
$var wire 1 f8 rst $end
$var wire 16 116 input $end
$var wire 16 11e output $end
$upscope $end
$upscope $end
$scope module FIFO_top_col_0 $end
$var wire 16 50 In $end
$var wire 16 bd Out $end
$upscope $end
$scope module FIFO_top_col_1 $end
$var wire 16 54 In $end
$var wire 16 c1 Out $end
$var wire 16 121 input $end
$var wire 16 123 output $end
$scope module buffer $end
$var wire 1 d3 clk $end
$var wire 1 ea rst $end
$var wire 16 120 input $end
$var wire 16 122 output $end
$upscope $end
$upscope $end
$scope module FIFO_top_col_2 $end
$var wire 16 58 In $end
$var wire 16 c4 Out $end
$var wire 16 125 input $end
$var wire 16 127 input$1 $end
$var wire 16 128 output $end
$var wire 16 12b output$1 $end
$scope module buffer_0 $end
$var wire 1 e0 clk $end
$var wire 1 fd rst $end
$var wire 16 126 input $end
$var wire 16 129 output $end
$upscope $end
$scope module buffer_1 $end
$var wire 1 d7 clk $end
$var wire 1 f3 rst $end
$var wire 16 124 input $end
$var wire 16 12a output $end
$upscope $end
$upscope $end
$scope module FIFO_top_col_3 $end
$var wire 16 5c In $end
$var wire 16 c7 Out $end
$var wire 16 12d input $end
$var wire 16 12e input$1 $end
$var wire 16 130 input$2 $end
$var wire 16 133 output $end
$var wire 16 135 output$1 $end
$var wire 16 136 output$2 $end
$scope module buffer_0 $end
$var wire 1 d0 clk $end
$var wire 1 e7 rst $end
$var wire 16 131 input $end
$var wire 16 132 output $end
$upscope $end
$scope module buffer_1 $end
$var wire 1 c8 clk $end
$var wire 1 e8 rst $end
$var wire 16 12c input $end
$var wire 16 134 output $end
$upscope $end
$scope module buffer_2 $end
$var wire 1 cf clk $end
$var wire 1 ec rst $end
$var wire 16 12f input $end
$var wire 16 137 output $end
$upscope $end
$upscope $end
$scope module cell_r0_c0 $end
$var wire 16 43 L_in $end
$var wire 16 53 Top_in $end
$var wire 16 61 SUM $end
$var wire 16 81 F_right $end
$var wire 16 87 F_down $end
$var wire 1 cd clk $end
$var wire 1 f0 rst $end
$upscope $end
$scope module cell_r0_c1 $end
$var wire 16 10 L_in $end
$var wire 16 56 Top_in $end
$var wire 16 63 SUM $end
$var wire 16 83 F_right $end
$var wire 16 8b F_down $end
$var wire 1 d4 clk $end
$var wire 1 f9 rst $end
$upscope $end
$scope module cell_r0_c2 $end
$var wire 16 12 L_in $end
$var wire 16 5b Top_in $end
$var wire 16 65 SUM $end
$var wire 16 85 F_right $end
$var wire 16 8f F_down $end
$var wire 1 ce clk $end
$var wire 1 f2 rst $end
$upscope $end
$scope module cell_r0_c3 $end
$var wire 16 15 L_in $end
$var wire 16 5e Top_in $end
$var wire 16 67 SUM $end
$var wire 16 93 F_down $end
$var wire 1 db clk $end
$var wire 1 e4 rst $end
$var wire 16 100 F_right $end
$upscope $end
$scope module cell_r1_c0 $end
$var wire 16 17 Top_in $end
$var wire 16 46 L_in $end
$var wire 16 69 SUM $end
$var wire 16 88 F_right $end
$var wire 16 95 F_down $end
$var wire 1 de clk $end
$var wire 1 ed rst $end
$upscope $end
$scope module cell_r1_c1 $end
$var wire 16 19 L_in $end
$var wire 16 1b Top_in $end
$var wire 16 6b SUM $end
$var wire 16 8d F_right $end
$var wire 16 99 F_down $end
$var wire 1 e2 clk $end
$var wire 1 fe rst $end
$upscope $end
$scope module cell_r1_c2 $end
$var wire 16 1d L_in $end
$var wire 16 1f Top_in $end
$var wire 16 6d SUM $end
$var wire 16 91 F_right $end
$var wire 16 9d F_down $end
$var wire 1 d1 clk $end
$var wire 1 f7 rst $end
$upscope $end
$scope module cell_r1_c3 $end
$var wire 16 20 L_in $end
$var wire 16 22 Top_in $end
$var wire 16 6e SUM $end
$var wire 16 a1 F_down $end
$var wire 1 df clk $end
$var wire 1 f5 rst $end
$var wire 16 101 F_right $end
$upscope $end
$scope module cell_r2_c0 $end
$var wire 16 25 Top_in $end
$var wire 16 4b L_in $end
$var wire 16 71 SUM $end
$var wire 16 97 F_right $end
$var wire 16 a3 F_down $end
$var wire 1 cc clk $end
$var wire 1 e5 rst $end
$upscope $end
$scope module cell_r2_c1 $end
$var wire 16 26 L_in $end
$var wire 16 28 Top_in $end
$var wire 16 72 SUM $end
$var wire 16 9b F_right $end
$var wire 16 a7 F_down $end
$var wire 1 ca clk $end
$var wire 1 f1 rst $end
$upscope $end
$scope module cell_r2_c2 $end
$var wire 16 2a L_in $end
$var wire 16 2d Top_in $end
$var wire 16 75 SUM $end
$var wire 16 9e F_right $end
$var wire 16 ab F_down $end
$var wire 1 d9 clk $end
$var wire 1 e6 rst $end
$upscope $end
$scope module cell_r2_c3 $end
$var wire 16 2e L_in $end
$var wire 16 30 Top_in $end
$var wire 16 76 SUM $end
$var wire 16 af F_down $end
$var wire 1 d5 clk $end
$var wire 1 fa rst $end
$var wire 16 102 F_right $end
$upscope $end
$scope module cell_r3_c0 $end
$var wire 16 32 Top_in $end
$var wire 16 4e L_in $end
$var wire 16 78 SUM $end
$var wire 16 a5 F_right $end
$var wire 1 e1 clk $end
$var wire 1 f4 rst $end
$var wire 16 103 F_down $end
$upscope $end
$scope module cell_r3_c1 $end
$var wire 16 35 L_in $end
$var wire 16 37 Top_in $end
$var wire 16 7b SUM $end
$var wire 16 a9 F_right $end
$var wire 1 cb clk $end
$var wire 1 fb rst $end
$var wire 16 104 F_down $end
$upscope $end
$scope module cell_r3_c2 $end
$var wire 16 38 L_in $end
$var wire 16 3b Top_in $end
$var wire 16 7d SUM $end
$var wire 16 ac F_right $end
$var wire 1 dd clk $end
$var wire 1 eb rst $end
$var wire 16 105 F_down $end
$upscope $end
$scope module cell_r3_c3 $end
$var wire 16 3c L_in $end
$var wire 16 3f Top_in $end
$var wire 16 7f SUM $end
$var wire 1 d8 clk $end
$var wire 1 ee rst $end
$var wire 16 106 F_right $end
$var wire 16 107 F_down $end
$upscope $end
$upscope $end
$upscope $end
$enddefinitions $end
#0
$dumpvars
b0 0
b0 1
b0 2
b0 3
b0 4
b0 5
b0 6
b0 7
b0 8
b0 9
b0 a
b0 b
b0 c
b0 d
b0 e
b0 f
b0 10
b0 11
b0 12
b0 13
b0 14
b0 15
b0 16
b0 17
b0 18
b0 19
b0 1a
b0 1b
b0 1c
b0 1d
b0 1e
b0 1f
b0 20
b0 21
b0 22
b0 23
b0 24
b0 25
b0 26
b0 27
b0 28
b0 29
b0 2a
b0 2b
b0 2c
b0 2d
b0 2e
b0 2f
b0 30
b0 31
b0 32
b0 33
b0 34
b0 35
b0 36
b0 37
b0 38
b0 39
b0 3a
b0 3b
b0 3c
b0 3d
b0 3e
b0 3f
b0 40
b0 41
b0 42
b0 43
b0 44
b0 45
b0 46
b0 47
b0 48
b0 49
b0 4a
b0 4b
b0 4c
b0 4d
b0 4e
b0 4f
b0 50
b0 51
b0 52
b0 53
b0 54
b0 55
b0 56
b0 57
b0 58
b0 59
b0 5a
b0 5b
b0 5c
b0 5d
b0 5e
b0 5f
b0 60
b0 61
b0 62
b0 63
b0 64
b0 65
b0 66
b0 67
b0 68
b0 69
b0 6a
b0 6b
b0 6c
b0 6d
b0 6e
b0 6f
b0 70
b0 71
b0 72
b0 73
b0 74
b0 75
b0 76
b0 77
b0 78
b0 79
b0 7a
b0 7b
b0 7c
b0 7d
b0 7e
b0 7f
b0 80
b0 81
b0 82
b0 83
b0 84
b0 85
b0 86
b0 87
b0 88
b0 89
b0 8a
b0 8b
b0 8c
b0 8d
b0 8e
b0 8f
b0 90
b0 91
b0 92
b0 93
b0 94
b0 95
b0 96
b0 97
b0 98
b0 99
b0 9a
b0 9b
b0 9c
b0 9d
b0 9e
b0 9f
b0 a0
b0 a1
b0 a2
b0 a3
b0 a4
b0 a5
b0 a6
b0 a7
b0 a8
b0 a9
b0 aa
b0 ab
b0 ac
b0 ad
b0 ae
b0 af
b0 b0
b0 b1
b0 b2
b0 b3
b0 b4
b0 b5
b0 b6
b0 b7
b0 b8
b0 b9
b0 ba
b0 bb
b0 bc
b0 bd
b0 be
b0 bf
b0 c0
b0 c1
b0 c2
b0 c3
b0 c4
b0 c5
b0 c6
b0 c7
0c8
0c9
0ca
0cb
0cc
0cd
0ce
0cf
0d0
0d1
0d2
0d3
0d4
0d5
0d6
0d7
0d8
0d9
0da
0db
0dc
0dd
0de
0df
0e0
0e1
0e2
0e3
0e4
0e5
0e6
0e7
0e8
0e9
0ea
0eb
0ec
0ed
0ee
0ef
0f0
0f1
0f2
0f3
0f4
0f5
0f6
0f7
0f8
0f9
0fa
0fb
0fc
0fd
0fe
0ff
b0 100
b0 101
b0 102
b0 103
b0 104
b0 105
b0 106
b0 107
b0 108
b0 109
b0 10a
b0 10b
b0 10c
b0 10d
b0 10e
b0 10f
b0 110
b0 111
b0 112
b0 113
b0 114
b0 115
b0 116
b0 117
b0 118
b0 119
b0 11a
b0 11b
b0 11c
b0 11d
b0 11e
b0 11f
b0 120
b0 121
b0 122
b0 123
b0 124
b0 125
b0 126
b0 127
b0 128
b0 129
b0 12a
b0 12b
b0 12c
b0 12d
b0 12e
b0 12f
b0 130
b0 131
b0 132
b0 133
b0 134
b0 135
b0 136
b0 137
$end
#319
1de
1d2
1c8
1df
1d3
1e0
1d4
1e1
1d5
1c9
1e2
1d6
1ca
1e3
1d7
1cb
1d8
1cc
1d9
1cd
1da
1ce
1db
1cf
1dc
1d0
1dd
1d1
b1100 b9
b11 c5
b1000 b6
b10 c2
b100 b3
b1 bf
b10 59
b10 58
b100 44
b100 45
b11 5d
b11 5c
b1100 4d
b1100 4c
b1000 49
b1000 48
b1 54
b1 55
b1 121
b1 120
b11 131
b11 130
b1000 10e
b1000 10f
b1100 119
b1100 118
b100 108
b100 109
b10 127
b10 126
#638
0de
0d2
0c8
0df
0d3
0e0
0d4
0e1
0d5
0c9
0e2
0d6
0ca
0e3
0d7
0cb
0d8
0cc
0d9
0cd
0da
0ce
0db
0cf
0dc
0d0
0dd
0d1
#957
1de
1d2
1c8
1df
1d3
1e0
1d4
1e1
1d5
1c9
1e2
1d6
1ca
1e3
1d7
1cb
1d8
1cc
1d9
1cd
1da
1ce
1db
1cf
1dc
1d0
1dd
1d1
b10 129
b10 128
b100 bc
b11 133
b11 132
b101 bf
b1 123
b1 122
b1 b0
b1000 111
b1000 110
b110 c2
b101 b3
b1100 11b
b1100 11a
b111 c5
b1001 b6
b1101 b9
b100 10a
b100 10b
b11 12d
b11 12c
b1 40
b1 41
b101 44
b101 45
b1000 10c
b1000 10d
b1 c0
b1 c1
b1001 49
b1001 48
b1100 115
b1100 114
b1101 4d
b1101 4c
b100 51
b100 50
b100 b5
b100 b4
b101 54
b101 55
b110 59
b110 58
b111 5d
b111 5c
b10 125
b10 124
b101 121
b101 120
b100 bd
b100 be
b111 131
b111 130
b1001 10e
b1001 10f
b100 47
b100 46
b1 b1
b1 b2
b1101 119
b1101 118
b101 108
b101 109
b1 57
b1 56
b110 127
b110 126
b1 42
b1 43
b100 53
b100 52
#1276
0de
0d2
0c8
0df
0d3
0e0
0d4
0e1
0d5
0c9
0e2
0d6
0ca
0e3
0d7
0cb
0d8
0cc
0d9
0cd
0da
0ce
0db
0cf
0dc
0d0
0dd
0d1
#1595
1de
1d2
1c8
1df
1d3
1e0
1d4
1e1
1d5
1c9
1e2
1d6
1ca
1e3
1d7
1cb
1d8
1cc
1d9
1cd
1da
1ce
1db
1cf
1dc
1d0
1dd
1d1
b110 129
b110 128
b1000 bc
b1 80
b1 81
b10 12b
b10 12a
b111 133
b111 132
b1001 bf
b101 123
b101 122
b10 b0
b11 134
b11 135
b1001 111
b1001 110
b1010 c2
b110 b3
b100 86
b100 87
b1101 11b
b1101 11a
b1000 113
b1000 112
b100 88
b100 89
b1100 11d
b1100 11c
b1011 c5
b1010 b6
b1 8a
b1 8b
b100 60
b100 61
b1110 b9
b101 10a
b101 10b
b1 10
b1 11
b111 12d
b111 12c
b11 12f
b11 12e
b10 40
b10 41
b100 17
b100 16
b100 18
b100 19
b110 44
b110 45
b1001 10c
b1001 10d
b100 0
b101 c0
b101 c1
b1 1a
b1 1b
b1010 49
b1010 48
b1101 115
b1101 114
b1100 117
b1100 116
b1110 4d
b1110 4c
b10 c3
b10 c4
b1000 51
b1000 50
b101 b5
b101 b4
b1001 54
b1001 55
b1010 59
b1010 58
b1000 b7
b1000 b8
b1011 5d
b1011 5c
b110 125
b110 124
b1001 121
b1001 120
b1000 bd
b1000 be
b1011 131
b1011 130
b1010 10e
b1010 10f
b101 47
b101 46
b10 b1
b10 b2
b1000 4a
b1000 4b
b1110 119
b1110 118
b110 108
b110 109
b101 57
b101 56
b10 5a
b10 5b
b1010 127
b1010 126
b10 42
b10 43
b1000 53
b1000 52
#1914
0de
0d2
0c8
0df
0d3
0e0
0d4
0e1
0d5
0c9
0e2
0d6
0ca
0e3
0d7
0cb
0d8
0cc
0d9
0cd
0da
0ce
0db
0cf
0dc
0d0
0dd
0d1
#2233
1de
1d2
1c8
1df
1d3
1e0
1d4
1e1
1d5
1c9
1e2
1d6
1ca
1e3
1d7
1cb
1d8
1cc
1d9
1cd
1da
1ce
1db
1cf
1dc
1d0
1dd
1d1
b1010 129
b1010 128
b1100 bc
b10100 69
b10100 68
b100 6a
b100 6b
b100 94
b100 95
b10 80
b10 81
b110 12b
b110 12a
b1011 133
b1011 132
b1101 bf
b1000 97
b1000 96
b1001 123
b1001 122
b11 b0
b111 134
b111 135
b1 99
b1 98
b1010 111
b1010 110
b1110 c2
b111 b3
b1000 86
b1000 87
b11 136
b11 137
b1110 11b
b1110 11a
b1001 113
b1001 112
b101 88
b101 89
b1101 11d
b1101 11c
b1111 c5
b1011 b6
b101 8a
b101 8b
b101 62
b101 63
b100 8d
b100 8c
b1100 11f
b1100 11e
b10100 60
b10100 61
b1111 b9
b110 10a
b110 10b
b10 8f
b10 8e
b1 83
b1 82
b1011 12d
b1011 12c
b111 12f
b111 12e
b10100 0
b101 1
b10100 4
b100 5
b10 10
b10 11
b1 13
b1 12
b1000 17
b1000 16
b101 18
b101 19
b1010 10c
b1010 10d
b101 1a
b101 1b
b1001 c0
b1001 c1
b100 1d
b100 1c
b10 1f
b10 1e
b110 c3
b110 c4
b100 25
b100 24
b1000 26
b1000 27
b1 29
b1 28
b11 c7
b11 c6
b11 40
b11 41
b111 44
b111 45
b1011 49
b1011 48
b1110 115
b1110 114
b1101 117
b1101 116
b1111 4d
b1111 4c
b1100 51
b1100 50
b110 b5
b110 b4
b1101 54
b1101 55
b1110 59
b1110 58
b1001 b7
b1001 b8
b1111 5d
b1111 5c
b1010 125
b1010 124
b1100 ba
b1100 bb
b1111 131
b1111 130
b1100 bd
b1100 be
b1011 10e
b1011 10f
b1101 121
b1101 120
b110 47
b110 46
b11 b1
b11 b2
b1001 4a
b1001 4b
b1111 119
b1111 118
b1100 4f
b1100 4e
b111 108
b111 109
b1001 57
b1001 56
b110 5a
b110 5b
b11 5e
b11 5f
b1110 127
b1110 126
b11 42
b11 43
b1100 53
b1100 52
#2553
0de
0d2
0c8
0df
0d3
0e0
0d4
0e1
0d5
0c9
0e2
0d6
0ca
0e3
0d7
0cb
0d8
0cc
0d9
0cd
0da
0ce
0db
0cf
0dc
0d0
0dd
0d1
#2872
1de
1d2
1c8
1df
1d3
1e0
1d4
1e1
1d5
1c9
1e2
1d6
1ca
1e3
1d7
1cb
1d8
1cc
1d9
1cd
1da
1ce
1db
1cf
1dc
1d0
1dd
1d1
b1110 129
b1110 128
b1010 12b
b1010 12a
b1111 133
b1111 132
b1011 134
b1011 135
b111 136
b111 137
b0 bc
b1000100 69
b1000100 68
b11 92
b11 93
b11101 6a
b11101 6b
b1000 94
b1000 95
b0 bf
b1001 97
b1001 96
b1000 6d
b1000 6c
b101 99
b101 98
b1011 111
b1011 110
b0 c2
b100100 70
b100100 71
b1000 9a
b1000 9b
b1010 113
b1010 112
b10 9d
b10 9c
b1000 72
b1000 73
b0 c5
b111000 60
b111000 61
b100 a3
b100 a2
b1100 a4
b1100 a5
b1 a6
b1 a7
b11 80
b11 81
b1101 123
b1101 122
b0 b0
b10 83
b10 82
b1 84
b1 85
b0 b3
b1100 86
b1100 87
b1111 11b
b1111 11a
b110 88
b110 89
b1110 11d
b1110 11c
b0 b6
b1001 8a
b1001 8b
b10111 62
b10111 63
b101 8d
b101 8c
b1101 11f
b1101 11e
b0 b9
b111 10a
b111 10b
b110 8f
b110 8e
b110 64
b110 65
b100 90
b100 91
b1111 12d
b1111 12c
b1011 12f
b1011 12e
b111000 0
b10111 1
b110 2
b1000100 4
b11101 5
b1000 6
b100100 8
b1000 9
b11 10
b11 11
b10 13
b10 12
b1 14
b1 15
b1100 17
b1100 16
b110 18
b110 19
b1011 10c
b1011 10d
b1001 1a
b1001 1b
b1101 c0
b1101 c1
b101 1d
b101 1c
b110 1f
b110 1e
b100 21
b100 20
b11 23
b11 22
b1010 c3
b1010 c4
b1000 25
b1000 24
b1001 26
b1001 27
b101 29
b101 28
b1000 2a
b1000 2b
b111 c7
b111 c6
b10 2c
b10 2d
b100 32
b100 33
b1100 34
b1100 35
b1 37
b1 36
b0 40
b0 41
b0 44
b0 45
b0 49
b0 48
b1111 115
b1111 114
b1110 117
b1110 116
b0 4d
b0 4c
b0 51
b0 50
b111 b5
b111 b4
b0 54
b0 55
b0 59
b0 58
b1010 b7
b1010 b8
b0 5d
b0 5c
b1110 125
b1110 124
b1101 ba
b1101 bb
b0 131
b0 130
b0 bd
b0 be
b0 10e
b0 10f
b0 121
b0 120
b111 47
b111 46
b0 b1
b0 b2
b1010 4a
b1010 4b
b0 119
b0 118
b1101 4f
b1101 4e
b0 108
b0 109
b1101 57
b1101 56
b1010 5a
b1010 5b
b111 5e
b111 5f
b0 127
b0 126
b0 42
b0 43
b0 53
b0 52
#3191
0de
0d2
0c8
0df
0d3
0e0
0d4
0e1
0d5
0c9
0e2
0d6
0ca
0e3
0d7
0cb
0d8
0cc
0d9
0cd
0da
0ce
0db
0cf
0dc
0d0
0dd
0d1
#3510
1de
1d2
1c8
1df
1d3
1e0
1d4
1e1
1d5
1c9
1e2
1d6
1ca
1e3
1d7
1cb
1d8
1cc
1d9
1cd
1da
1ce
1db
1cf
1dc
1d0
1dd
1d1
b0 129
b0 128
b1110 12b
b1110 12a
b10 ab
b10 aa
b0 133
b0 132
b1111 134
b1111 135
b1011 136
b1011 137
b100 103
b10011000 69
b10011000 68
b111 92
b111 93
b1010011 6a
b1010011 6b
b1100 94
b1100 95
b1 104
b1010 97
b1010 96
b100110 6d
b100110 6c
b1001 99
b1001 98
b1100 6f
b1100 6e
b0 111
b0 110
b1110100 70
b1110100 71
b1001 9a
b1001 9b
b1011 113
b1011 112
b110 9d
b110 9c
b110101 72
b110101 73
b10000 75
b10000 74
b1000 9e
b1000 9f
b11 a0
b11 a1
b1000 a3
b1000 a2
b110100 79
b110100 78
b1101 a4
b1101 a5
b1100 7b
b1100 7a
b101 a6
b101 a7
b1100 a8
b1100 a9
b1 100
b0 80
b0 81
b0 123
b0 122
b11 83
b11 82
b10 84
b10 85
b100 101
b0 86
b0 87
b0 11b
b0 11a
b111 88
b111 89
b1111 11d
b1111 11c
b1101 8a
b1101 8b
b111110 62
b111110 63
b110 8d
b110 8c
b1110 11f
b1110 11e
b0 10a
b0 10b
b1010 8f
b1010 8e
b11010 64
b11010 65
b101 90
b101 91
b111 66
b111 67
b0 12d
b0 12c
b1111 12f
b1111 12e
b111110 1
b11010 2
b111 3
b10011000 4
b1010011 5
b100110 6
b1100 7
b1110100 8
b110101 9
b10000 a
b110100 c
b1100 d
b0 10
b0 11
b11 13
b11 12
b10 14
b10 15
b0 17
b0 16
b111 18
b111 19
b0 10c
b0 10d
b1101 1a
b1101 1b
b0 c0
b0 c1
b110 1d
b110 1c
b1010 1f
b1010 1e
b101 21
b101 20
b111 23
b111 22
b1110 c3
b1110 c4
b1100 25
b1100 24
b1010 26
b1010 27
b1001 29
b1001 28
b1001 2a
b1001 2b
b1011 c7
b1011 c6
b110 2c
b110 2d
b1000 2e
b1000 2f
b11 30
b11 31
b1000 32
b1000 33
b1101 34
b1101 35
b101 37
b101 36
b1100 39
b1100 38
b10 3b
b10 3a
b0 115
b0 114
b1111 117
b1111 116
b0 b5
b0 b4
b1011 b7
b1011 b8
b0 125
b0 124
b1110 ba
b1110 bb
b0 47
b0 46
b1011 4a
b1011 4b
b1110 4f
b1110 4e
b0 57
b0 56
b1110 5a
b1110 5b
b1011 5e
b1011 5f
#3829
0de
0d2
0c8
0df
0d3
0e0
0d4
0e1
0d5
0c9
0e2
0d6
0ca
0e3
0d7
0cb
0d8
0cc
0d9
0cd
0da
0ce
0db
0cf
0dc
0d0
0dd
0d1
#4148
1de
1d2
1c8
1df
1d3
1e0
1d4
1e1
1d5
1c9
1e2
1d6
1ca
1e3
1d7
1cb
1d8
1cc
1d9
1cd
1da
1ce
1db
1cf
1dc
1d0
1dd
1d1
b0 12b
b0 12a
b110 ab
b110 aa
b1000 102
b0 134
b0 135
b1111 136
b1111 137
b1000 103
b1011 92
b1011 93
b10101110 6a
b10101110 6b
b0 94
b0 95
b101 104
b1011 97
b1011 96
b1100010 6d
b1100010 6c
b1101 99
b1101 98
b101111 6f
b101111 6e
b11111000 70
b11111000 71
b1010 9a
b1010 9b
b0 113
b0 112
b1010 9d
b1010 9c
b10001111 72
b10001111 73
b1000110 75
b1000110 74
b1001 9e
b1001 9f
b10 105
b111 a0
b111 a1
b11000 77
b11000 76
b1100 a3
b1100 a2
b10100100 79
b10100100 78
b1110 a4
b1110 a5
b1001101 7b
b1001101 7a
b1001 a6
b1001 a7
b11000 7d
b11000 7c
b1100 ad
b1100 ac
b1101 a8
b1101 a9
b10 100
b11 af
b11 ae
b0 83
b0 82
b11 84
b11 85
b101 101
b0 88
b0 89
b0 11d
b0 11c
b0 8a
b0 8b
b111 8d
b111 8c
b1111 11f
b1111 11e
b1110 8f
b1110 8e
b1000100 64
b1000100 65
b110 90
b110 91
b11101 66
b11101 67
b0 12f
b0 12e
b1000100 2
b11101 3
b10101110 5
b1100010 6
b101111 7
b11111000 8
b10001111 9
b1000110 a
b11000 b
b10100100 c
b1001101 d
b11000 e
b0 13
b0 12
b11 14
b11 15
b0 18
b0 19
b0 1a
b0 1b
b111 1d
b111 1c
b1110 1f
b1110 1e
b110 21
b110 20
b1011 23
b1011 22
b0 c3
b0 c4
b0 25
b0 24
b1011 26
b1011 27
b1101 29
b1101 28
b1010 2a
b1010 2b
b1111 c7
b1111 c6
b1010 2c
b1010 2d
b1001 2e
b1001 2f
b111 30
b111 31
b1100 32
b1100 33
b1110 34
b1110 35
b1001 37
b1001 36
b1101 39
b1101 38
b110 3b
b110 3a
b1100 3c
b1100 3d
b11 3e
b11 3f
b0 117
b0 116
b0 b7
b0 b8
b1111 ba
b1111 bb
b0 4a
b0 4b
b1111 4f
b1111 4e
b0 5a
b0 5b
b1111 5e
b1111 5f
#4467
0de
0d2
0c8
0df
0d3
0e0
0d4
0e1
0d5
0c9
0e2
0d6
0ca
0e3
0d7
0cb
0d8
0cc
0d9
0cd
0da
0ce
0db
0cf
0dc
0d0
0dd
0d1
